original;harmonized;year
B53D;B53B;2009, 2012
C11;C101;2009
C12;C102;2009
C13;C103;2009
C14;C104;2009
C15;C105;2009
C16;C106;2009
C17;C107;2009
C18;C108;2009
C19;C109;2009
C1A;C10A;2009
C1B;C10B;2009
C1C;C10C;2009
C1D;C10D;2009
C1E;C10E;2009
C21;-1;2009
C21E;-1;2009
C22;-1;2009
C23;-1;2009
C24;-1;2009
C25;-1;2009
C26;-1;2009
C27;-1;2009
C28;-1;2009
C29;-1;2009
C2A;-1;2009
C2B;-1;2009
C2C;-1;2009
C2D;-1;2009
C2E;-1;2009
C31;-1;2009
C32;-1;2009
C321;-1;2009
C325;-1;2009
C32A;-1;2009
C33;-1;2009
C34;-1;2009
C35;-1;2009
C36;-1;2009
C37;-1;2009
C38;-1;2009
C39;-1;2009
C3A;-1;2009
C3B;-1;2009
C3C;-1;2009
C3D;-1;2009
C3E;-1;2009
