code;name
-1;Not relevant
B19A;Sorghum (Sorghum bicolor)
B19B;Buckwheat (Fagopyrum esculentum Mill.)
B19C;Common, golden or proso millet (Panicum miliaceum L.)
B19D;Canary grass (Phalaris canariensis L.)
B19F;Quinoa (Chenopodium quinoa)
B19H;Other cereals not specified elsewhere
B23A;Fodder beet (roots of Beta vulgaris)
B23B;Fodder kale (Brassica oleracea L.)
B23C;Swedes (Brassica napus L. var. napobrassica (L.) Robb.)
B23D;Carrots (roots of Daucus carota L.)
B23E;Turnips (roots of Brassica rapa L.)
B23F;Jerusalem artichoke (Helianthus tuberosus L.)
B23G;Sweet potatoes (Ipomoea batatas (L.) Lam.)
B23H;Fodder parsnips (Pastinaca sativa L.)
B23K;Horseradish (Cochlearia armoracia)
B23L;Tuberous chervil (chaerophyllum bulbosum)
B23M;Other tropical tubers
B23N;Other root or tuber crops not specified elsewhere
B35A;Flax (Linum usitatissimum straw)
B35B;Hemp (Cannabis sativa straw)
B35C;Poppy seeds (Papaver somniferum L.)
B35D;Mustard seeds (Sinapis alba L., Sinapis nigra)
B35E;Safflower (Carthamus tinctorius L.)
B35F;Earth almond (Cyperus esculentus L.)
B35H;Jute (Corchorus spp.)
B35K;Kenaf (Hibiscus cannabinus)
B35L;Bird rape (Brassica rapa var. silvestris)
B35M;Castor beans (Ricinus communis)
B35N;Other fibre and oleaginous crops not elsewhere specified
B37A;Chicory roots (Cichorium intybus var. sativum)
B37B;Hops (Humulus lupulus)
B37C;Medicinal plants
B37D;Spices and aromatic plants
B37E;Sugar cane (Saccharum officinarum)
B37F;Other non permanent industrial crops not specified elsewhere
B43A;Brassicas
B43B;Leaf and stalked vegetables other than brassicas
B43C;Leguminous vegetables, including production for tins
B43E;Vegetables cultivated for fruit other than tomatoes
B43F;Cultivated mushrooms
B43G;Wild products
B43H;Other fresh vegetables not specified elsewhere
B53A;Sainfoin (Onobrychis viciifolia Scop.)
B53B;Sweet clover or Trefoil (Lotus corniculatus L.)
B53C;Chickling vetch (Lathyrus sativus)
B53D;Black medick (Medicago lupulina L.)
B53E;Melilot (Melilotus alba Lam.)
B53F;Serradella (Ornithopus sativus)
B53G;Fenugreek (Trigonella foenum-graecum)
B53H;Sulla (Hedysarium coronarium)
B53I;Sweet lupins (Lupinus albus, Lupinus angustifolius, Lupinus luteus)
B53J;California bluebell (Phacelia tanacetifolia)
B53K;Other leguminous and mixtures for fodder not specified elsewhere
B75A;Apricot (Prunus armeniaca)
B75C;Figs (Ficus carica)
B75D;Juneberry (Amelanchier vulgaris)
B75E;Kiwi (Actinidia chinensis)
B75F;Loquat (Eriobotrya japonica)
B75G;Medlar (Mespilus germanica)
B75H;Mirabella (Prunus insititia var. syriaca)
B75I;Peach, nectarine, platerine (Prunus persica, Amygdalus persica, Persica laevis)
B75J;Persimons (Diospyros kaki)
B75K;Plums (Prunus domestica)
B75L;Pomegranates (Punica granatum)
B75M;Oleaster (Eleagnus sp.)
B75N;Quinces (Cydonia oblonga)
B75O;Sloes (Prunus spinosa)
B75P;Small fruits and berries
B75Q;Tropical fruits
B75R;Other fruit trees and berries not specified elsewhere
B77A;Bergamot (Citrus bergamia)
B77B;Citron (Citrus medica var. cedrata)
B77C;Grapefruit and pomelo (Citrus maxima, Citrus grandis, Citrus paradisea)
B77D;Lemons (Citrus limon)
B77E;Limes (Citrus aurantifolia, Citrus limetta)
B77F;Satsumas (Citrus unshiu)
B77G;Mandarines (Citrus deliciosa, Citrus nobilis)
B77H;Clementines (Citrus clementina)
B77I;Kumquats (Fortunella spp.)
B77K;Other citrus fruit not specified elsewhere
B83A;Horticultural nurseries
B83B;Vine and root-stock nurseries
B83C;Fruit trees nurseries
B83D;Ornamental plants nurseries
B83E;Trees and bushes nurseries (for planting in gardens, parks, embankments)
B83F;Forest tree nurseries
B83G;Other, non-specialized nurseries
B84A;Reeds, canary grass (Phalaris arundinacea) when cultivated and not natural
B84B;Other plants for plaiting
B84E;Other industrial plants for beverages
B84F;Industrial plants for oil
B84G;Permanent aromatic plants
B84I;Plants for rubber and tanin
B84J;Rose trees cultivated for rose-oil production (not as ornamental plants)
B84K;Other permanent industrial crops
B84L;Miscanthus (Miscanthus giganteus)
B84M;Willow
C101;Broadleaved woodland - boreal forest
C102;Broadleaved woodland - hemiboreal forest and nemoral coniferous forest and mixed broadleaved-coniferous forest
C103;Broadleaved woodland - alpine coniferous forest
C104;Broadleaved woodland - acidophilous oak and oak-birch forest
C105;Broadleaved woodland - mesophytic deciduous forest
C106;Broadleaved woodland - beech forest
C107;Broadleaved woodland - mountainous beech forest
C108;Broadleaved woodland - thermophilous deciduous forest
C109;Broadleaved woodland - broadleaved evergreen forest
C10A;Broadleaved woodland - coniferous forest of the mediterranean region
C10B;Broadleaved woodland - mire and swamp forests
C10C;Broadleaved woodland - floodplain forest
C10D;Broadleaved woodland - non-riverine alder, birch or aspen forest
C10E;Broadleaved woodland - exotic forest
C211;Spruce dominated coniferous woodland - boreal forest
C212;Spruce dominated coniferous woodland - hemiboreal forest and nemoral coniferous forest and mixed broadleaved-coniferous forest
C213;Spruce dominated coniferous woodland - alpine coniferous forest
C214;Spruce dominated coniferous woodland - acidophilous oak and oak-birch forest
C215;Spruce dominated coniferous woodland - mesophytic deciduous forest
C216;Spruce dominated coniferous woodland - beech forest
C217;Spruce dominated coniferous woodland - mountainous beech forest
C218;Spruce dominated coniferous woodland - thermophilous deciduous forest
C219;Spruce dominated coniferous woodland - broadleaved evergreen forest
C21A;Spruce dominated coniferous woodland - coniferous forest of the mediterranean region
C21B;Spruce dominated coniferous woodland - mire and swamp forests
C21C;Spruce dominated coniferous woodland - floodplain forest
C21D;Spruce dominated coniferous woodland - non-riverine alder, birch or aspen forest
C21E;Spruce dominated coniferous woodland - exotic forest
C221;Pine dominated coniferous woodland - boreal forest
C222;Pine dominated coniferous woodland - hemiboreal forest and nemoral coniferous forest and mixed broadleaved-coniferous forest
C223;Pine dominated coniferous woodland - alpine coniferous forest
C224;Pine dominated coniferous woodland - acidophilous oak and oak-birch forest
C225;Pine dominated coniferous woodland - mesophytic deciduous forest
C226;Pine dominated coniferous woodland - beech forest
C227;Pine dominated coniferous woodland - mountainous beech forest
C228;Pine dominated coniferous woodland - thermophilous deciduous forest
C229;Pine dominated coniferous woodland - broadleaved evergreen forest
C22A;Pine dominated coniferous woodland - coniferous forest of the mediterranean region
C22B;Pine dominated coniferous woodland - mire and swamp forests
C22C;Pine dominated coniferous woodland - floodplain forest
C22D;Pine dominated coniferous woodland - non-riverine alder, birch or aspen forest
C22E;Pine dominated coniferous woodland - exotic forest
C231;Other coniferous woodland - boreal forest
C232;Other coniferous woodland - hemiboreal forest and nemoral coniferous forest and mixed broadleaved-coniferous forest
C233;Other coniferous woodland - alpine coniferous forest
C234;Other coniferous woodland - acidophilous oak and oak-birch forest
C235;Other coniferous woodland - mesophytic deciduous forest
C236;Other coniferous woodland - beech forest
C237;Other coniferous woodland - mountainous beech forest
C238;Other coniferous woodland - thermophilous deciduous forest
C239;Other coniferous woodland - broadleaved evergreen forest
C23A;Other coniferous woodland - coniferous forest of the mediterranean region
C23B;Other coniferous woodland - mire and swamp forests
C23C;Other coniferous woodland - floodplain forest
C23E;Other coniferous woodland - exotic forest
C311;Spruce dominated mixed woodland - boreal forest
C312;Spruce dominated mixed woodland - hemiboreal forest and nemoral coniferous forest and mixed broadleaved-coniferous forest
C313;Spruce dominated mixed woodland - alpine coniferous forest
C314;Spruce dominated mixed woodland - acidophilous oak and oak-birch forest
C315;Spruce dominated mixed woodland - mesophytic deciduous forest
C316;Spruce dominated mixed woodland - beech forest
C317;Spruce dominated mixed woodland - mountainous beech forest
C318;Spruce dominated mixed woodland - thermophilous deciduous forest
C319;Spruce dominated mixed woodland - broadleaved evergreen forest
C31A;Spruce dominated mixed woodland - coniferous forest of the mediterranean region
C31B;Spruce dominated mixed woodland - mire and swamp forests
C31C;Spruce dominated mixed woodland - floodplain forest
C31D;Spruce dominated mixed woodland - non-riverine alder, birch or aspen forest
C31E;Spruce dominated mixed woodland - exotic forest
C321;Pine dominated mixed woodland - boreal forest
C322;Pine dominated mixed woodland - hemiboreal forest and nemoral coniferous forest and mixed broadleaved-coniferous forest
C323;Pine dominated mixed woodland - alpine coniferous forest
C324;Pine dominated mixed woodland - acidophilous oak and oak-birch forest
C325;Pine dominated mixed woodland - mesophytic deciduous forest
C326;Pine dominated mixed woodland - beech forest
C327;Pine dominated mixed woodland - mountainous beech forest
C328;Pine dominated mixed woodland - thermophilous deciduous forest
C329;Pine dominated mixed woodland - broadleaved evergreen forest
C32A;Pine dominated mixed woodland - coniferous forest of the mediterranean region
C32B;Pine dominated mixed woodland - mire and swamp forests
C32C;Pine dominated mixed woodland - floodplain forest
C32D;Pine dominated mixed woodland - non-riverine alder, birch or aspen forest
C32E;Pine dominated mixed woodland - exotic forest
C331;Other mixed woodland - boreal forest
C332;Other mixed woodland - hemiboreal forest and nemoral coniferous forest and mixed broadleaved-coniferous forest
C333;Other mixed woodland - alpine coniferous forest
C334;Other mixed woodland - acidophilous oak and oak-birch forest
C335;Other mixed woodland - mesophytic deciduous forest
C336;Other mixed woodland - beech forest
C337;Other mixed woodland - mountainous beech forest
C338;Other mixed woodland - thermophilous deciduous forest
C339;Other mixed woodland - broadleaved evergreen forest
C33A;Other mixed woodland - coniferous forest of the mediterranean region
C33B;Other mixed woodland - mire and swamp forests
C33C;Other mixed woodland - floodplain forest
C33D;Other mixed woodland - non-riverine alder, birch or aspen forest
C33E;Other mixed woodland - exotic forest
