code;name
-1;Not relevant
B19A;Sorghum (Sorghum bicolor)
B19B;Buckwheat (Fagopyrum esculentum Mill.)
B19C;Common, golden or proso millet (Panicum miliaceum L.)
B19D;Canary grass (Phalaris canariensis L.)
B19F;Quinoa (Chenopodium quinoa)
B19H;Other cereals not specified elsewhere
B23A;Fodder beet (roots of Beta vulgaris)
B23B;Fodder kale (Brassica oleracea L.)
B23C;Swedes (Brassica napus L. var. napobrassica (L.) Robb.)
B23D;Carrots (roots of Daucus carota L.)
B23E;Turnips (roots of Brassica rapa L.)
B23N;Other root or tuber crops not specified elsewhere
B35A;Flax (Linum usitatissimum straw)
B35B;Hemp (Cannabis sativa straw)
B35C;Poppy seeds (Papaver somniferum L.)
B35D;Mustard seeds (Sinapis alba L., Sinapis nigra)
B35L;Bird rape (Brassica rapa var. silvestris)
B35N;Other fibre and oleaginous crops not elsewhere specified
B37C;Medicinal plants
B37D;Spices and aromatic plants
B37F;Other non permanent industrial crops not specified elsewhere
B43A;Brassicas
B43B;Leaf and stalked vegetables other than brassicas
B43C;Leguminous vegetables, including production for tins
B43E;Vegetables cultivated for fruit other than tomatoes
B43F;Cultivated mushrooms
B43G;Wild products
B43H;Other fresh vegetables not specified elsewhere
B53A;Sainfoin (Onobrychis viciifolia Scop.)
B53B;Sweet clover or Trefoil (Lotus corniculatus L.)
B53C;Chickling vetch (Lathyrus sativus)
B53D;Black medick (Medicago lupulina L.)
B53G;Fenugreek (Trigonella foenum-graecum)
B53H;Sulla (Hedysarium coronarium)
B53I;Sweet lupins (Lupinus albus, Lupinus angustifolius, Lupinus luteus)
B53J;California bluebell (Phacelia tanacetifolia)
B53K;Other leguminous and mixtures for fodder not specified elsewhere
B75A;Apricot (Prunus armeniaca)
B75C;Figs (Ficus carica)
B75F;Loquat (Eriobotrya japonica)
B75G;Medlar (Mespilus germanica)
B75H;Mirabella (Prunus insititia var. syriaca)
B75I;Peach, nectarine, platerine (Prunus persica, Amygdalus persica, Persica laevis)
B75J;Persimons (Diospyros kaki)
B75K;Plums (Prunus domestica)
B75L;Pomegranates (Punica granatum)
B75N;Quinces (Cydonia oblonga)
B75O;Sloes (Prunus spinosa)
B75P;Small fruits and berries
B75R;Other fruit trees and berries not specified elsewhere
B77B;Citron (Citrus medica var. cedrata)
B77D;Lemons (Citrus limon)
B77G;Mandarines (Citrus deliciosa, Citrus nobilis)
B77H;Clementines (Citrus clementina)
B77K;Other citrus fruit not specified elsewhere
B83D;Ornamental plants nurseries
B83E;Trees and bushes nurseries (for planting in gardens, parks, embankments)
B84K;Other permanent industrial crops
C101;Broadleaved woodland - boreal forest
C102;Broadleaved woodland - hemiboreal forest and nemoral coniferous forest and mixed broadleaved-coniferous forest
C103;Broadleaved woodland - alpine coniferous forest
C104;Broadleaved woodland - acidophilous oak and oak-birch forest
C105;Broadleaved woodland - mesophytic deciduous forest
C106;Broadleaved woodland - beech forest
C108;Broadleaved woodland - thermophilous deciduous forest
C109;Broadleaved woodland - broadleaved evergreen forest
C10C;Broadleaved woodland - floodplain forest
C10D;Broadleaved woodland - non-riverine alder, birch or aspen forest
C211;Spruce dominated coniferous woodland - boreal forest
C213;Spruce dominated coniferous woodland - alpine coniferous forest
C221;Pine dominated coniferous woodland - boreal forest
C223;Pine dominated coniferous woodland - alpine coniferous forest
C22A;Pine dominated coniferous woodland - coniferous forest of the mediterranean region
C22E;Pine dominated coniferous woodland - exotic forest
C231;Other coniferous woodland - boreal forest
C311;Spruce dominated mixed woodland - boreal forest
C312;Spruce dominated mixed woodland - hemiboreal forest and nemoral coniferous forest and mixed broadleaved-coniferous forest
C317;Spruce dominated mixed woodland - mountainous beech forest
C321;Pine dominated mixed woodland - boreal forest
C325;Pine dominated mixed woodland - mesophytic deciduous forest
C32E;Pine dominated mixed woodland - exotic forest
C331;Other mixed woodland - boreal forest
C332;Other mixed woodland - hemiboreal forest and nemoral coniferous forest and mixed broadleaved-coniferous forest
C336;Other mixed woodland - beech forest
C337;Other mixed woodland - mountainous beech forest
