code;name
-1;Not relevant
U221L;Manufacture of food products, beverages or tobacco products
U222L;Manufacture of household linen, blankets, carpets and rugs, ropes, shoe laces, Manufacture of wearing apparel, Manufacture of luggage, handbags, saddlery and harness, Manufacture of footwear
U222R;Tanning and dressing of leather, Manufacture of textiles
U223H;Manufacture of weapons and ammunition
U223R;Manufacture of coke and refined petroleum products, Manufacture of basic metals, Manufacture of fabricated metal products, except machinery and equipment
U224R;Manufacture of glass and glass products, Manufacture of refractory products, Manufacture of clay building materials, Manufacture of other porcelain and ceramic products, Manufacture of cement, lime and plaster, Manufacture of articles of concrete, cement and plaster, Cutting, shaping and finishing of stone, Manufacture of abrasive products and non-metallic mineral products not mentioned elsewhere
U225L;Pharmaceutical preparations
U225R;Manufacture of chemicals and chemical products, Manufacture of basic pharmaceutical products, Manufacture of rubber and plastic products
U226H;Manufacture of domestic appliances, Manufacture of machinery and equipment not specified elsewhere, including engines, turbines, ovens, furnaces, cranes, elevators, cooling and ventilation equipment, agriculture and forestry machinery, etc., Manufacture of motor vehicles, trailers and semi-trailers, Manufacture of other transport equipment
U226L;Manufacture of computer, electronic and optical products, Manufacture of other electrical equipment, Manufacture of machinery and equipment not specified elsewhere, namely office machinery and equipment (except computers and peripheral equipment), Manufacture of furniture, including wooden furniture, Other manufacturing
U227R;Manufacture of wood and of products of wood and cork (except furniture), Manufacture of paper and paper products
U315O;Transport of other material via pipelines
